Introduction to samplingin
…
Allocation DataFrame

The dataset used is alokasi_dt which is a dataset consisting of sample allocations for each province for sampling purposes.

dim(alokasi_dt)
#> [1] 34  3

alokasi_dt
#> # A tibble: 34 x 3
#>   kdprov jml_kabkota n_primary
#>   <chr>        <int>     <dbl>
#> 1 11              23         4
#> 2 12              33         5
#> 3 13              19         3
#> 4 14              12         3
#> # ... with 30 more rows
…
